PERMX
214.370729446972
19.5595401620350
1.46683608640407
1.86422481844016
1.00000000000000
1.31979695431472
1.00000000000000
1.00000000000000
5.13345521023766
1.89633941564984
1.00000000000000
1.00000000000000
1.44952178533475
35.2484583628050
223.614391384060
247.992580309409
249
218.009678160005
16.1904761904762
2.27368421052632
3.96850393700787
1.00000000000000
1.00000000000000
1.00000000000000
1.00000000000000
1.00000000000000
1.00000000000000
1.00000000000000
1.00000000000000
1.00000000000000
1.00000000000000
1.00000000000000
1.00000000000000
2.76312307013674
12.3126261494496
248.749538942160
245.143391755710
248.245834474800
247.239422266556
249
245.166168243361
244.667207312398
157.134573957999
5.39409964645414
4.87262840593416
1.00000000000000
1.00000000000000
1.00000000000000
1.00000000000000
1.00000000000000
1.00000000000000
1.00000000000000
1.00000000000000
1.00000000000000
1.00000000000000
1.00000000000000
1.00000000000000
1.00000000000000
1.50000000000000
249
247.744489946297
114.574737816535
2.04061696658098
1.79305019305019
1.43835616438356
3.45348837209302
1.00000000000000
1.00000000000000
1.00000000000000
1.00000000000000
1.44952178533475
2.89348171701113
5.84181818181818
32.5982412862650
247.992580309409
246.201770868812
248.247858747450
127.401116462963
2.12355099046222
2.41610738255034
1.41863699582754
1.00000000000000
1.00000000000000
1.00000000000000
1.00000000000000
1.00000000000000
1.00000000000000
1.00000000000000
1.00000000000000
1.38662033014770
1.00000000000000
1.00000000000000
1.48949485918641
2.47678067457420
98.0905224243787
247.738384279783
248.245834474800
248.498152219200
115.436690325760
237.457942989019
245.181933201441
247.996639775841
247.749535372065
89.1989750499012
2.16689125464122
2.88406010065758
2.09823613190666
4.10293066476054
1.00000000000000
1.00000000000000
1.00000000000000
1.00000000000000
1.00000000000000
1.00000000000000
1.00000000000000
1.00000000000000
1.00000000000000
1.31979695431472
1.55092316855271
249
246.220185410549
244.363496824173
143.754661881601
24.4958545300673
10.4466761599298
1.50000000000000
1.00000000000000
1.00000000000000
1.00000000000000
1.00000000000000
1.44952178533475
8.37622459423892
35.0262538940703
218.156701511866
246.453082537641
249
246.982948494631
16.3759945619476
2.82787967718269
1.43835616438356
1.00000000000000
1.00000000000000
1.00000000000000
1.00000000000000
1.00000000000000
1.00000000000000
1.00000000000000
1.00000000000000
1.00000000000000
1.81299885974914
1.55092316855271
1.48949485918641
3.49368800721371
30.4076887560368
247.992580309409
247.995624919560
249
248.749538942160
4.91909872805313
55.0933487292129
155.208434199148
244.944527406256
246.460845633011
241.671237157267
98.0399549067690
1.78290270883008
3.78947368421053
1.00000000000000
1.00000000000000
1.41863699582754
1.00000000000000
1.00000000000000
1.00000000000000
1.00000000000000
1.00000000000000
1.40800000000000
1.00000000000000
1.35849056603774
14.8407751957993
249
249
246.473782630369
240.139377051816
249
116.380774709393
1.64755658980326
1.96547571256524
1.00000000000000
1.00000000000000
1.75852076721402
1.84539065729640
1.73816155988858
244.452336427262
247.738384279783
246.712071098900
249
166.626560500072
4.76569437920802
3.80244333708407
1.31979695431472
1.00000000000000
1.00000000000000
1.00000000000000
1.00000000000000
1.00000000000000
1.00000000000000
1.00000000000000
1.00000000000000
1.00000000000000
1.53600000000000
1.94011976047904
1.60650406504065
3.27804878048781
189.267063128100
242.956805388726
248.498152219200
247.992580309409
249
5.88819875776398
2.75666402606328
5.68398223351644
139.797290035500
247.738384279783
247.500000000000
225.679641235894
160.343754925213
2.18591041019949
2.88406010065758
1.42480211081794
3.22720247295209
1.33333333333333
1.00000000000000
1.00000000000000
1.00000000000000
1.00000000000000
1.26315789473684
1.42480211081794
1.00000000000000
18.0411633551229
249
249
249
249
248.247523067176
135.904776192441
5.70289147301108
1.40800000000000
1.35849056603774
1.00000000000000
1.00000000000000
1.46683608640407
6.68591710884842
244.998101024012
248.749538942160
249
249
249
3.63636363636364
1.00000000000000
1.00000000000000
1.00000000000000
1.00000000000000
1.00000000000000
1.00000000000000
1.00000000000000
1.00000000000000
1.00000000000000
1.00000000000000
1.00000000000000
1.00000000000000
1.00000000000000
1.43835616438356
1.41863699582754
223.659292035398
248.749538942160
247.483240898528
245.992463772866
189.811739146143
13.3631910830776
2.33726812816189
6.49756097560976
11.7601999253696
189.095072487153
246.727055414861
248.498152219200
244.213778635498
164.154959223503
125.658605103141
11.6289347058690
5.24462640736950
1.56521739130435
2.47745244710408
1.31979695431472
1.00000000000000
1.00000000000000
1.00000000000000
1.00000000000000
1.42480211081794
4.82191610022455
249
246.193118508908
246.496619202927
248.498152219200
246.726473363227
232.679430464360
3.90291236015515
2.57345773569141
1.00000000000000
1.00000000000000
1.42480211081794
1.41863699582754
1.38662033014770
249
247.483240898528
249
249
246.453082537641
6.30834489166588
1.00000000000000
1.47964060409100
1.00000000000000
1.00000000000000
1.00000000000000
1.00000000000000
1.00000000000000
1.00000000000000
1.00000000000000
1.00000000000000
1.00000000000000
1.00000000000000
1.66037735849057
3.51804123711340
5.71949503042377
240.166149733874
249
246.492493256728
242.761787120718
31.1292570939043
1.50893512851897
1.55092316855271
5.11552677429426
4.78222777126005
130.435358005389
246.193118508908
247.738384279783
247.483240898528
241.896178327797
246.970089907982
17.8033354177413
10.0551172098342
1.40800000000000
2.07557460070121
1.43835616438356
1.00000000000000
1.00000000000000
1.00000000000000
1.00000000000000
1.50064683053040
8.42124819547552
247.742454751804
196.556347416430
245.738201463048
248.498152219200
248.245834474800
236.779972838125
6.58583496905621
1.31979695431472
1.00000000000000
1.00000000000000
1.00000000000000
1.50000000000000
1.35849056603774
212.008291866358
249
249
244.152084907512
205.384898614772
6.58833543601514
1.44952178533475
1.35849056603774
1.00000000000000
1.00000000000000
1.00000000000000
1.00000000000000
1.00000000000000
1.00000000000000
1.00000000000000
1.00000000000000
1.00000000000000
1.00000000000000
1.40800000000000
2.09139797911592
79.9871275648316
249
249
235.530018777826
180.951377827592
2.04469047954391
1.45887961859356
1.17209302325581
1.84014869888476
1.40800000000000
135.379712197140
249
248.749538942161
248.498152219200
246.474744721166
241.190795531047
1.98734177215190
3.75343334037608
1.00000000000000
1.50064683053040
2.01145248739656
1.00000000000000
1.00000000000000
1.00000000000000
1.00000000000000
6.18527929712735
102.600408702196
244.152084907512
103.658944438090
249
244.982909170739
249
176.900300613746
1.83977226514843
1.38662033014770
1.00000000000000
1.00000000000000
1.00000000000000
1.50000000000000
1.41863699582754
177.166434831592
249
248.498152219200
245.170584152386
220.122137455176
7.48558673621638
3.09032226985886
2.14054054054054
1.00000000000000
1.00000000000000
1.00000000000000
1.00000000000000
1.00000000000000
1.00000000000000
1.00000000000000
1.00000000000000
1.53600000000000
1.17209302325581
1.35849056603774
4.85601323847682
226.395993380648
248.749538942160
246.482337487306
248.498152219200
33.1012606184647
1.38662033014770
1.00000000000000
1.00000000000000
1.00000000000000
1.62118564323162
181.994356152523
248.247523067176
249
247.742454751804
249
230.137211391661
1.98738159882821
1.76814734561213
1.67785998861696
3.57476635514019
1.26315789473684
1.00000000000000
1.17209302325581
1.81299885974915
3.20237212750185
2.93785998722267
239.029100406717
245.249526194341
62.7460769610182
243.249518580583
249
249
161.038043478261
1.00000000000000
1.00000000000000
1.00000000000000
1.00000000000000
1.00000000000000
1.71388433622103
1.42480211081794
176.735123393100
246.712071098900
242.167979539304
246.245769183593
247.483240898528
84.9007944415287
3.37027379400261
1.67441860465116
1.00000000000000
1.00000000000000
1.00000000000000
1.00000000000000
1.00000000000000
1.00000000000000
1.00000000000000
1.00000000000000
1.00000000000000
1.00000000000000
1.43835616438356
3.95809001762491
247.244474494451
249
249
249
1.98333333333333
1.00000000000000
1.00000000000000
1.00000000000000
1.00000000000000
1.53600000000000
2.80903044835543
39.5323573567868
246.208692155484
245.932173250349
243.893984207479
206.469586294039
16.5477102831297
1.87360594795539
1.00000000000000
1.00000000000000
1.17209302325581
1.00000000000000
1.61194029850746
1.41863699582754
6.30727762803235
118.719840421342
247.227144633631
246.712071098900
10.7230666740180
249
249
249
161.038043478261
1.33333333333333
1.00000000000000
1.00000000000000
1.00000000000000
1.00000000000000
1.31979695431472
4.98164014687882
63.6976367314769
213.140699227980
243.893984207479
249
241.674959154517
234.857592313972
9.25777907233684
3.17450495049505
1.91868548556983
1.71577574967405
1.00000000000000
1.00000000000000
1.00000000000000
1.00000000000000
1.00000000000000
1.00000000000000
1.00000000000000
1.00000000000000
1.35849056603774
19.5777398778007
246.462366713901
249
248.749538942160
244.612523469686
1.55428791953593
1.17209302325581
1.31979695431472
1.00000000000000
1.00000000000000
1.00000000000000
1.00000000000000
5.92207792207792
247.483240898528
245.963414634146
247.483240898528
12.6954148303692
2.24860508369498
1.44952178533475
1.00000000000000
1.00000000000000
1.00000000000000
1.00000000000000
1.17209302325581
4.40349483717236
17.0866905356585
237.203620489223
248.245834474800
249
173.319242554824
247.992580309409
249
249
109.559349675629
1.00000000000000
1.00000000000000
1.00000000000000
1.00000000000000
1.00000000000000
1.45887961859356
1.81593927893738
1.75000000000000
29.6117212156388
189.208460147055
247.744489946297
245.143391755709
242.235149999054
81.3091024689872
1.94214515458060
1.92455450127285
1.83394405219412
1.00000000000000
1.00000000000000
1.00000000000000
1.00000000000000
1.00000000000000
1.00000000000000
1.00000000000000
1.31979695431472
1.46683608640407
11.5613715975190
249
248.245834474800
249
248.498152219200
52.6981466065580
2.52571021559872
1.45887961859356
1.00000000000000
1.00000000000000
1.00000000000000
1.33333333333333
6.89242252582473
249
249
230.177105831533
5.85766801983603
3.80244333708407
1.43835616438356
1.00000000000000
1.00000000000000
1.00000000000000
1.00000000000000
1.33333333333333
5.99465716829920
158.933661915545
249
247.992580309409
246.712071098900
245.143391755709
249
249
238.493309854767
55.8694025353762
1.00000000000000
1.17209302325581
1.00000000000000
1.40800000000000
1.00000000000000
1.00000000000000
1.00000000000000
1.62093094006693
1.72606396124759
78.9815215725831
234.282006007055
246.238247717006
246.460845633011
241.671237157267
29.2518664441213
1.91868548556983
1.86422481844016
1.00000000000000
1.00000000000000
1.31979695431472
1.00000000000000
1.00000000000000
3.10752418667602
1.31979695431472
1.00000000000000
1.45887961859356
10.7607117278880
246.453082537641
248.749538942160
247.992580309409
248.749538942160
202.608755797122
2.81652416681208
1.78858468677494
2.00000000000000
1.17209302325581
1.00000000000000
5.22705515088450
131.468068233262
249
249
242.281379152903
12.6176553532971
1.00000000000000
1.63179916317992
1.17209302325581
1.00000000000000
1.00000000000000
1.00000000000000
1.42480211081794
136.150487569548
244.952525222191
245.932173250349
248.749538942161
243.749520507404
247.738384279783
248.245834474800
246.453082537641
240.762689301891
69.4574145815141
1.35849056603774
1.00000000000000
1.00000000000000
1.00000000000000
1.00000000000000
1.00000000000000
1.53600000000000
1.97245051510591
1.97045472435780
5.98118418723637
50.3224262192295
199.444376816822
248.498152219200
247.500000000000
207.489358913505
24.5097154397243
6.97678991307483
1.81809808887866
2.08695652173913
2.00000000000000
1.00000000000000
1.47211895910781
1.00000000000000
1.78566192640375
1.00000000000000
1.26315789473684
5.74937548986413
87.3588680757995
249
248.749538942160
249
247.483240898528
10.5013823951228
1.35849056603774
1.68000000000000
1.83639536077184
1.00000000000000
1.45887961859356
249
249
242.167979539304
249
3.96080008950186
1.31979695431472
1.35849056603774
1.17209302325581
3.41864504921830
2.73467528918845
1.35849056603774
162.685678466464
234.329676748217
247.232272517936
246.453082537641
245.000000000000
175.715260015223
196.264240334019
249
247.483240898528
249
109.973997458304
6.81238615664845
3.79559098017454
1.00000000000000
1.00000000000000
1.00000000000000
1.00000000000000
1.17209302325581
1.26315789473684
2.24860508369498
4.40061633281972
6.42857142857143
5.89488892902294
245.407315756033
246.727055414861
244.113545845484
103.288973944554
22.6903466125847
13.8199557949627
3.18079501169135
1.67785998861696
1.00000000000000
1.00000000000000
1.00000000000000
1.00000000000000
1.00000000000000
1.00000000000000
4.61355764473033
14.7559700232611
185.411140318298
246.992577588624
249
239.360832451660
25.9650516038008
2.41610738255034
1.17209302325581
1.38662033014770
1.00000000000000
1.71388433622103
13.7996759879285
229.222600036308
246.483109800477
246.245769183593
71.3449439731895
1.48949485918641
2.07851764872868
5.72444892303817
2.12892949339973
7.16762388139442
57.7920358239960
242.982777539631
247.738384279783
248.749538942160
246.217943170320
245.213637940430
176.580285835587
50.6002312211113
249
249
249
247.227144633631
13.3913608778639
1.82581246429967
1.00000000000000
1.00000000000000
1.00000000000000
1.00000000000000
1.00000000000000
1.00000000000000
1.83272727272727
5.95517643318851
1.71754636233952
6.06558567638471
12.9891055852512
242.397446261024
245.143391755709
247.483240898528
239.747774516510
213.061297187318
1.84796682912635
1.74669187145558
5.23412638278527
1.53600000000000
1.00000000000000
1.00000000000000
1.00000000000000
2.84952380952381
1.78898632823139
2.21751530999475
1.96926472801458
199.093906802803
246.471195380374
248.247858747450
106.606980378997
2.91655120137383
5.80579835994397
3.78947368421053
1.00000000000000
1.38662033014770
5.23705091909566
120.888761904855
244.969616232956
248.245834474800
240.944177938735
143.213351157894
71.6853819553600
21.0605958155585
1.93103448275862
1.52458185504308
104.770012305579
249
246.712071098900
247.227144633631
248.498152219200
247.992580309409
70.1799079219209
4.08697201924790
249
249
249
243.749520507404
25.6723308652089
3.77286991532951
1.31979695431472
1.00000000000000
1.00000000000000
1.00000000000000
1.00000000000000
1.00000000000000
1.00000000000000
1.86193212716236
1.17209302325581
2.57142857142857
8.81934084536846
1.98949111476164
247.227144633631
248.498152219200
245.670240952053
245.245735746258
11.5231916179730
1.74910315138805
1.31979695431472
1.00000000000000
1.00000000000000
1.00000000000000
1.00000000000000
1.00000000000000
1.00000000000000
1.50000000000000
1.17209302325581
2.89890427951209
194.240706594610
246.483109800477
223.880309408685
143.239812290195
1.79350483063671
1.00000000000000
1.00000000000000
2.63474054022922
4.69331071283236
6.08747376521284
77.0056225590977
246.743445768469
248.498152219200
243.941026492123
242.252375381084
203.312971228294
170.275031938719
119.803518169959
234.175831304207
247.487501086686
249
247.738384279783
247.992580309409
246.712071098900
7.56058158319871
1.33333333333333
219.968609865471
249
249
247.227144633631
176.515435804899
5.98528209321341
1.84014869888476
1.00000000000000
1.00000000000000
1.00000000000000
1.00000000000000
1.00000000000000
1.17209302325581
1.00000000000000
1.38662033014770
4.41002534497325
2.01161928732739
12.2754021026601
248.245834474800
248.749538942160
249
248.247523067176
33.5730337078652
2.00000000000000
1.00000000000000
1.00000000000000
1.00000000000000
1.00000000000000
1.00000000000000
1.00000000000000
1.00000000000000
1.50000000000000
1.33333333333333
7.56436681990959
247.992580309409
249
249
240.812587200125
3.58770835695657
1.00000000000000
1.00000000000000
1.00000000000000
2.62268477685659
4.21708113874258
2.63185378590078
33.4135760137015
240.526573264991
247.237376064305
247.235690944037
242.866885273375
249
244.745718823966
249
248.498152219200
249
246.712071098900
245.983043461396
204.751179498024
7.42702187528365
1.33333333333333
220.590604026846
249
249
249
192.199365940834
1.00000000000000
1.00000000000000
1.31979695431472
1.40800000000000
1.00000000000000
1.00000000000000
1.00000000000000
1.00000000000000
1.90207178290050
4.47551473468855
1.00000000000000
3.51804123711340
7.16417860984572
235.601833869634
249
247.992580309409
248.749538942160
35.2804016895956
2.40000000000000
1.00000000000000
1.00000000000000
1.00000000000000
1.00000000000000
1.00000000000000
1.00000000000000
1.00000000000000
1.71388433622103
1.62118564323162
5.76548785397903
249
249
249
161.038043478261
1.50000000000000
1.00000000000000
1.00000000000000
1.00000000000000
3.49714285714286
2.21924686192469
1.63229486616937
5.20059176747019
183.021730704608
246.998130628175
249
249
244.669607954989
248.749538942161
246.712071098900
247.992580309409
246.453082537641
241.731512002494
232.757152862911
13.2895874998194
1.00000000000000
1.47368421052632
83.5006821689888
243.875308831870
249
248.498152219200
192.576354679803
1.17209302325581
1.00000000000000
1.60000000000000
1.00000000000000
1.00000000000000
1.00000000000000
1.00000000000000
1.00000000000000
1.75852076721402
1.67852760736196
1.73195876288660
1.26315789473684
1.45887961859356
249
248.749538942160
249
249
142.107928937199
1.42480211081794
1.00000000000000
1.00000000000000
1.00000000000000
1.00000000000000
1.00000000000000
1.00000000000000
1.40800000000000
1.31979695431472
1.00000000000000
17.5475422655654
249
246.712071098900
249
161.038043478261
2.40000000000000
1.00000000000000
1.00000000000000
1.00000000000000
4.43865589997395
2.04299832750494
1.48486886348352
1.84294714529646
5.50096755714158
224.530858312637
244.160066960679
248.498152219200
249
249
249
249
246.462366713901
72.9777707666552
38.9496307729393
4.89539748953975
1.59683168316832
4.36168307967771
11.0753204664487
230.036338842197
243.691980802918
248.245834474800
249
2.96902906877084
1.00000000000000
1.60000000000000
1.00000000000000
1.00000000000000
1.00000000000000
1.00000000000000
1.00000000000000
1.53600000000000
1.94011976047904
1.00000000000000
1.42480211081794
2.29731689630167
249
247.483240898528
249
249
82.2417769670267
1.38662033014770
1.00000000000000
1.00000000000000
1.00000000000000
1.00000000000000
1.00000000000000
1.00000000000000
1.26315789473684
1.00000000000000
1.83050847457627
85.6729195088449
248.245834474800
249
247.227144633631
161.038043478261
2.53534551231136
1.00000000000000
1.00000000000000
1.53600000000000
1.26315789473684
1.00000000000000
1.00000000000000
2.33726812816189
6.49756097560976
12.1738822483949
244.747845997139
249
245.706801749368
249
249
248.245834474800
239.665804811058
23.3071701545465
4.47058823529412
2.17573221757322
1.17209302325581
1.46683608640407
3.32093023255814
32.7415202852496
244.941382140771
247.992580309409
249
4.91909872805313
1.17209302325581
1.50000000000000
1.00000000000000
1.00000000000000
1.00000000000000
1.00000000000000
1.00000000000000
1.00000000000000
1.00000000000000
1.00000000000000
1.50000000000000
1.59726962457338
249
248.749538942160
248.749538942160
248.498152219200
7.69517984715287
1.71234428086070
1.00000000000000
1.00000000000000
1.00000000000000
1.00000000000000
1.00000000000000
1.00000000000000
1.35849056603774
1.50000000000000
1.00000000000000
218.716216216216
247.995967741936
246.712071098900
247.992580309409
118.842330804857
1.80787765113259
1.38662033014770
1.00000000000000
1.00000000000000
1.17209302325581
1.00000000000000
1.00000000000000
1.55092316855271
5.11552677429426
8.04520471076095
181.250921835039
248.749538942160
249
249
247.233283575920
248.245834474800
146.274055878470
6.84542640117745
2.50000000000000
2.91468226969656
1.67441860465116
1.31979695431472
5.13638186404502
1.95042522519774
246.201770868812
246.970089907982
249
5.88819875776398
1.41863699582754
1.50000000000000
1.00000000000000
1.00000000000000
1.00000000000000
1.00000000000000
1.00000000000000
1.00000000000000
1.00000000000000
1.00000000000000
1.71388433622103
1.47368421052632
137.280960254601
249
249
249
3.94725697851809
1.50000000000000
1.00000000000000
1.00000000000000
1.00000000000000
1.00000000000000
1.00000000000000
1.00000000000000
1.00000000000000
4.19951729686243
1.00000000000000
219.343820224719
248.498993963783
249
246.712071098900
11.7142964546167
1.42480211081794
1.31979695431472
1.00000000000000
1.00000000000000
1.00000000000000
1.00000000000000
1.00000000000000
1.00000000000000
1.35849056603774
4.38031806659769
1.99178156686846
246.473782630369
249
248.749538942161
245.670240952053
157.224196353182
31.3564162452128
1.49361702127660
1.38662033014770
1.84014869888476
1.00000000000000
1.00000000000000
2.91943127962085
46.7928334439283
247.227144633631
249
246.193118508908
11.1961770583613
1.46683608640407
1.00000000000000
1.00000000000000
1.00000000000000
1.00000000000000
1.00000000000000
1.00000000000000
1.00000000000000
1.00000000000000
1.00000000000000
1.71428571428571
1.73816155988858
18.8452676647980
249
249
245.452712493219
7.75356235958633
1.31979695431472
1.00000000000000
1.00000000000000
1.00000000000000
1.00000000000000
1.00000000000000
1.00000000000000
1.00000000000000
1.50000000000000
1.33333333333333
219.968609865471
249
243.115079668729
101.249013795220
6.38079454338184
1.40800000000000
1.26315789473684
1.00000000000000
1.00000000000000
1.00000000000000
1.00000000000000
1.17209302325581
2.72306267366471
4.87916719887598
2.20423700157264
151.208133434704
248.749538942160
247.743480886841
249
51.6513785765539
8.62136184220553
4.68258697511139
1.42480211081794
1.31979695431472
1.00000000000000
1.00000000000000
3.09859154929578
1.76402500192916
142.467145144319
249
245.189406773353
133.026181779401
3.50000000000000
3.37027379400261
1.51715962302175
1.00000000000000
1.00000000000000
1.00000000000000
1.00000000000000
1.00000000000000
1.00000000000000
1.00000000000000
1.00000000000000
1.00000000000000
25.1229531845352
216.620924176310
247.738384279783
249
249
10.6061405057242
1.44952178533475
1.00000000000000
1.00000000000000
1.00000000000000
1.00000000000000
1.00000000000000
1.00000000000000
1.00000000000000
2.88000000000000
11.6902330957426
130.096691974235
248.498152219200
246.245769183593
11.6661389568402
2.12359550561798
2.71129707112971
1.00000000000000
1.00000000000000
1.00000000000000
1.00000000000000
1.00000000000000
1.38662033014770
1.17209302325581
1.54539662312838
87.8258408616010
245.211621488275
246.992522505559
247.992580309409
235.321855871766
7.60334390314212
5.84195573638245
1.50893512851897
1.74609869253480
1.68000000000000
1.00000000000000
1.00000000000000
1.83639536077184
5.13359576342799
201.388502746377
249
248.498152219200
16.9253744048019
1.40800000000000
1.41863699582754
1.63383760419883
1.00000000000000
1.00000000000000
1.00000000000000
1.00000000000000
1.00000000000000
1.00000000000000
1.00000000000000
1.35849056603774
3.50000000000000
7.16181770238200
235.226995037384
247.483240898528
245.474541751527
249
5.88784956028325
1.33333333333333
1.31979695431472
3.30550918196995
1.00000000000000
1.00000000000000
1.00000000000000
1.00000000000000
1.71428571428571
3.02234337730614
3.60976748825302
151.190154324248
249
245.458416785522
62.7864057413293
4.00651465798046
1.48486886348352
1.00000000000000
1.00000000000000
1.00000000000000
1.00000000000000
1.00000000000000
1.82581246429967
8.37622459423892
159.739099840320
209.448050745131
248.749538942161
246.745785701928
247.227144633631
81.9481599091359
1.86926960619320
1.92455450127285
1.92455450127285
1.00000000000000
1.00000000000000
1.00000000000000
1.00000000000000
3.44973042623173
64.1724743423819
248.498152219200
247.483240898528
224.655756066081
11.1114859631517
1.26315789473684
1.00000000000000
1.00000000000000
1.00000000000000
1.00000000000000
1.00000000000000
1.00000000000000
1.00000000000000
1.40800000000000
1.00000000000000
1.77546235998958
7.63809853068280
202.613589331290
247.492551522190
248.749538942160
246.742398134985
246.193118508908
13.3005720717095
1.26315789473684
1.35849056603774
1.00000000000000
1.00000000000000
1.00000000000000
1.00000000000000
1.00000000000000
1.72406417112299
1.46683608640407
7.31554417428348
240.140136666408
247.227144633631
247.483240898528
142.134194137844
1.50893512851897
1.46683608640407
1.00000000000000
1.00000000000000
1.00000000000000
1.00000000000000
1.50000000000000
1.17209302325581
13.5999757357197
247.992580309409
249
249
220.590604026846
2.96671917515229
5.67876181734400
3.08312342569269
1.00000000000000
1.00000000000000
1.00000000000000
1.00000000000000
1.00000000000000
1.00000000000000
9.07881446000427
124.189913785038
247.227144633631
249
245.500000000000
20.0083662399068
1.93103448275862
1.00000000000000
1.00000000000000
1.00000000000000
1.00000000000000
1.00000000000000
1.00000000000000
1.00000000000000
1.00000000000000
1.26315789473684
1.38662033014770
1.97794731447531
244.675979947201
247.227144633631
247.483240898528
241.042221368581
96.5079941604425
13.9001341902677
1.70236439499305
1.45887961859356
1.00000000000000
1.00000000000000
1.00000000000000
1.00000000000000
1.00000000000000
1.00000000000000
6.71449067431851
118.719840421342
247.227144633631
249
249
142.107928937199
1.42480211081794
1.00000000000000
1.00000000000000
1.00000000000000
1.00000000000000
1.00000000000000
1.50000000000000
1.33333333333333
104.420431435945
248.245834474800
249
249
220.590604026846
1.63383760419883
2.49750792931581
1.42480211081794
1.00000000000000
1.00000000000000
1.00000000000000
1.00000000000000
1.00000000000000
1.00000000000000
1.45887961859356
50.9194148085658
247.227144633631
248.245834474800
249
1.98734177215190
2.50000000000000
1.00000000000000
1.00000000000000
1.00000000000000
1.00000000000000
1.00000000000000
1.00000000000000
1.00000000000000
1.00000000000000
1.00000000000000
6.13841524573721
5.89366642664038
247.738384279783
249
248.245834474800
129.135870547834
8.22006763837422
1.31979695431472
3.71744680851064
2.40000000000000
1.00000000000000
1.00000000000000
1.00000000000000
1.44952178533475
1.48949485918641
1.70981415063580
8.59553829975525
237.203620489223
248.245834474800
247.227144633631
248.749538942160
82.2417769670267
1.38662033014770
1.00000000000000
1.00000000000000
1.00000000000000
1.00000000000000
1.00000000000000
1.71388433622103
1.62118564323162
90.3198308715584
218.789294902333
249
249
220.590604026846
2.16312963436461
1.92455450127285
1.40800000000000
1.00000000000000
1.00000000000000
1.00000000000000
1.00000000000000
1.50000000000000
1.00000000000000
8.68246728971963
59.7729389977672
247.738384279783
249
246.245769183593
11.6661389568402
1.31979695431472
1.00000000000000
1.00000000000000
1.00000000000000
1.00000000000000
1.00000000000000
1.00000000000000
1.00000000000000
1.00000000000000
1.44952178533475
16.7651920063537
209.604459726873
246.245769183593
248.245834474800
243.249518580583
11.5597686566221
3.60396039603960
3.58074866310160
2
1.50000000000000
1.00000000000000
1.00000000000000
1.00000000000000
1.00000000000000
2.13536493263773
5.27005064185608
113.230405361837
247.227144633631
249
244.692337080265
190.937010694405
8.29106212944479
1.17209302325581
1.00000000000000
1.00000000000000
1.00000000000000
1.00000000000000
1.00000000000000
1.74910315138805
1.26315789473684
2.02270687014839
183.934982519354
248
249
242.306257417499
21.4683821933415
2.21891604675877
1.43835616438356
1.51124437781109
1.00000000000000
1.26315789473684
1.00000000000000
1.50000000000000
1.17209302325581
14.7919782995463
154.294898726376
247.744489946297
246.749538602740
245.458416785522
62.7864057413293
18.1731232086609
1.51124437781109
1.26315789473684
1.47964060409100
1.00000000000000
1.00000000000000
1.00000000000000
1.00000000000000
1.67785998861696
3.30056004978220
73.5754359667180
246.193118508908
247.744489946297
243.175475400078
228.124057152833
15.4051207777811
1.50893512851897
1.45887961859356
1.50000000000000
1.00000000000000
1.00000000000000
1.00000000000000
1.00000000000000
1.00000000000000
1.40800000000000
36.1072615074641
248.749538942160
243.952146089530
245.711772565432
246.453082537641
35.2576354645497
1.40800000000000
1.00000000000000
1.00000000000000
1.00000000000000
1.00000000000000
1.70546623794212
1.00000000000000
1.00000000000000
2.36417910447761
1.77498879426266
95.6512056529733
247.992580309409
247.992580309409
242.536829128536
239.325372318358
3.44898149009394
2.39543726235741
1.42480211081794
4.10293066476054
1.49361702127660
1.00000000000000
1.50000000000000
1.33333333333333
1.57303370786517
144.469168523808
249
247.738384279783
243.745684563698
142.134194137844
8.61068161190851
3.72982665869695
6.69938019689303
1.00000000000000
1.00000000000000
1.00000000000000
1.00000000000000
1.00000000000000
1.17209302325581
17.8624899165845
244.077587849239
248.498152219200
247.992580309409
246.712071098900
146.070680586172
1.47368421052632
1.73234115626789
1.00000000000000
1.00000000000000
1.00000000000000
1.00000000000000
1.00000000000000
1.00000000000000
1.00000000000000
2.64656512278520
154.687177380585
247.738384279783
248.498152219200
247.992580309409
245.452712493219
13.2221397338585
1.76402500192916
1.00000000000000
1.00000000000000
1.17209302325581
1.00000000000000
1.35849056603774
2.60409315455187
1.00000000000000
1.63383760419883
3.13725490196078
5.85643494863012
236.132351931533
246.970089907982
246.970089907982
240.165691397291
7.86273532602110
1.81989490849792
4.50000000000000
1.51124437781109
1.00000000000000
1.17209302325581
1.26315789473684
1.17209302325581
1.38662033014770
14.0070270045139
214.105562452100
248.749538942160
249
240.944177938735
56.4866347146909
1.83272727272727
1.00000000000000
1.76402500192916
1.00000000000000
1.00000000000000
1.26315789473684
1.00000000000000
1.86203473945409
151.399786565270
249
247.992580309409
245.469736085116
240.812587200125
9.81791494192843
1.94276258884585
1.00000000000000
1.00000000000000
1.00000000000000
1.00000000000000
1.00000000000000
1.00000000000000
1.17209302325581
2.50000000000000
6.86268681560393
209.618680375014
249
249
246.727548762852
242.893401663960
1.97553390388333
3.80327868852459
1.00000000000000
1.00000000000000
1.00000000000000
1.00000000000000
1.00000000000000
1.00000000000000
1.00000000000000
1.41863699582754
3.37468283056104
5.23705091909566
129.975892306789
243.910371664585
248.245834474800
247.491403857475
244.907828543283
108.000939859019
10.5492378282355
1.47964060409100
1.00000000000000
1.00000000000000
1.17209302325581
1.26315789473684
1.80621572212066
4.31678796709897
1.67852760736196
206.345787506131
248.498152219200
245.227042763664
243.538535837612
22.1163766937643
4.26730162016668
1.00000000000000
1.00000000000000
1.00000000000000
1.00000000000000
3.51804123711340
4.34482758620690
193.641265617157
247.483240898528
246.238247717006
244.688234261161
127.401116462963
2.12355099046222
1.62118564323162
1.00000000000000
1.00000000000000
1.33333333333333
1.00000000000000
1.00000000000000
1.00000000000000
2.40000000000000
3.71744680851064
223.836582258935
245.143391755709
249
249
245.670240952053
238.727841865637
1.98042796993059
2.30095873280534
1.73608903020668
1.00000000000000
1.00000000000000
1.00000000000000
1.00000000000000
1.00000000000000
1.50898203592814
1.69078116543388
6.34302280806791
3.70770249204553
1.83444108761329
32.2943813510154
246.482337487306
246.724109513258
248.498152219200
238.327998803617
190.234918614052
18.6810727311736
1.17209302325581
1.00000000000000
1.00000000000000
1.31979695431472
2.24860508369498
4.40061633281972
6.91026183296721
32.2943813510154
208.246475280839
249
245.181041455346
101.116501824688
7.90097235994745
2.88406010065758
2.09823613190666
4.10293066476054
1.35849056603774
3.22785495219195
4.04185841265839
207.409315552595
245.932173250349
248.247523067176
246.249529909592
16.3759945619476
2.82787967718269
5.23705091909566
1.00000000000000
1.48949485918641
1.17209302325581
1.00000000000000
1.00000000000000
1.00000000000000
3.42857142857143
5.22907337237341
212.096568630866
248.245834474800
249
246.193118508908
245.199862765486
242.726315155657
121.814005350955
4.25460455037920
1.67852760736196
1.26315789473684
1.00000000000000
1.00000000000000
1.00000000000000
1.00000000000000
1.17209302325581
1.81299885974914
1.45887961859356
2.70450751252087
4.22439526505404
2.58287976249382
190.653344144490
246.193118508908
247.483240898528
240.393174069915
244.675618445043
117.514522830988
4.25635088197235
1.40800000000000
1.00000000000000
1.00000000000000
1.83272727272727
2.63474054022922
4.69331071283236
6.08747376521284
75.1205072163828
249
248.245834474800
246.473782630369
202.744777215867
42.1804974848130
3.93037974683544
1.49731343283582
2.11084575475583
9.23284589426322
60.7699323959944
244.245701763685
246.980376925184
249
249
7.61445783132530
3.80244333708407
4
5.10225875296526
1.91722642982563
12.6465807899671
1.77640114546198
2.70450751252087
1.00000000000000
1.00000000000000
1.62118564323162
25.1906248383147
232.757152862911
246.495577419858
249
248.749538942160
246.469972911019
240.946054231287
7.36933797909408
2.08957918197030
1.64755658980326
4.43304258594151
1.47211895910781
1.40800000000000
1.44952178533475
1.00000000000000
1.53600000000000
1.17209302325581
1.86805040770941
2.70450751252087
8.21842024382748
10.9275936082140
108.959395513658
243.468040381553
248.498152219200
248.749538942160
112.898926422146
1.38662033014770
1.00000000000000
1.00000000000000
1.00000000000000
1.38662033014770
1.00000000000000
1.98122970097435
4.03697529928777
3.00024754517699
3.90371593234413
218.292791405218
244.681926485521
241.896178327797
242.166008256852
38.6552847004869
4.60309320280531
1.50064683053040
28.4692075783821
237.164511235639
249
248.749538942160
246.211737390252
237.026684743394
13.6883008923921
1.00000000000000
1.26315789473684
1.48486886348352
62.4765270171095
16.5723905994479
3.77286991532951
1.95815899581590
1.00000000000000
1.00000000000000
1.43835616438356
1.89126970072605
134.672526523206
124.844666440915
234.627164341923
249
249
249
93.4605984772994
2.58706467661691
6.90072724291787
4.23366000462999
1.81264795400744
2.05851251321819
1.64755658980326
1.00000000000000
1.00000000000000
1.00000000000000
1.00000000000000
1.17209302325581
5.16201117318436
2.72471974245987
23.4393910240712
237.214277308536
248.749538942160
231.070497694084
17.4756863471312
1.00000000000000
1.00000000000000
1.00000000000000
1.00000000000000
1.00000000000000
1.00000000000000
1.42480211081794
2.24860508369498
4.40061633281972
4.10061227866954
16.8792171990748
204.400366192950
245.932173250349
244.692310594606
246.469972911019
191.241381811878
78.2128669119016
228.409999954802
246.453082537641
246.453082537641
249
249
176.900300613746
1.83977226514843
3.61251671569938
2.64091065884788
21.0936748789259
242.216558171143
211.438430645503
1.81132075471698
1.33333333333333
1.00000000000000
1.00000000000000
1.26315789473684
3.27974276527331
6.29886873765488
65.0771153659237
233.566171079265
243.396466213552
247.738384279783
247.227144633631
194.792457410087
1.41863699582754
1.00000000000000
1.00000000000000
1.31979695431472
1.31979695431472
1.00000000000000
1.00000000000000
1.00000000000000
1.00000000000000
1.00000000000000
1.00000000000000
1.63383760419883
8.86020394991610
1.91070763767576
135.197104263554
247.738384279783
245.670240952053
105.389659677045
1.35849056603774
1.00000000000000
1.00000000000000
1.00000000000000
1.00000000000000
1.00000000000000
1.35849056603774
1.83272727272727
5.95517643318851
3.17981072555205
2.90388573183843
86.0067428731593
247.742454751804
249
249
245.983043461396
248.749538942160
246.193118508908
247.245802088859
244.738107828484
248.245834474800
246.990890657153
161.038043478261
1.00000000000000
1.45887961859356
1.89182603610440
164.740824804572
246.453082537641
248.247523067175
5.16241316270567
1.33333333333333
1.00000000000000
1.00000000000000
1.00000000000000
1.59726962457338
1.80972064804320
9.53501465307302
114.942766740833
245.712057185512
248.498152219200
249
192.576354679803
1.42480211081794
1.00000000000000
1.00000000000000
1.00000000000000
1.00000000000000
1.00000000000000
1.00000000000000
1.00000000000000
1.00000000000000
1.00000000000000
1.00000000000000
1.41863699582754
2.20917822838847
4.32990657858734
134.858401290488
246.745785701928
247.992580309409
163.522339691963
5.14165300866308
1.00000000000000
1.42480211081794
4.71196690006365
1.00000000000000
1.00000000000000
1.00000000000000
1.00000000000000
1.70236439499305
1.77498879426266
3.37027379400261
2.09412671225995
147.465951955293
249
249
249
245.482976587012
246.712071098900
247.498137882307
249
246.712071098900
245.983043461396
49.9185175728497
2.53848120685247
1.86995109581598
1.81264795400744
174.254362319992
249
192.576354679803
1.86805040770941
1.50000000000000
1.00000000000000
1.00000000000000
1.00000000000000
1.00000000000000
3.52573452802667
1.80599016540009
35.2159442853240
248.749538942161
247.992580309409
249
20.4771178980158
1.45887961859356
1.00000000000000
1.00000000000000
1.00000000000000
1.00000000000000
1.00000000000000
1.00000000000000
1.00000000000000
1.00000000000000
1.00000000000000
1.00000000000000
1.00000000000000
3.05966742745354
1.67785998861696
91.5890753405407
245.195680456011
245.000000000000
243.749520507404
16.6712760170093
5.66916982869481
1.42480211081794
1.00000000000000
1.00000000000000
1.00000000000000
1.00000000000000
1.00000000000000
1.00000000000000
1.42480211081794
1.35849056603774
3.65209139830194
171.571932009226
249
249
249
248.749538942160
249
246.453082537641
241.982492910713
245.407315756033
28.2610520232057
5.11637487126674
4.55912867797846
1.65872259294566
1.60650406504065
67.6055282127951
249
193.326781326781
2.70450751252087
1.50000000000000
1.17209302325581
1.00000000000000
1.00000000000000
1.38662033014770
8.50000000000000
1.70546623794212
23.8878012371563
247.227144633631
249
249
24.4275388992825
1.50898203592814
1.00000000000000
1.00000000000000
1.00000000000000
1.00000000000000
1.00000000000000
1.00000000000000
1.00000000000000
1.00000000000000
1.00000000000000
1.38662033014770
1.94011976047904
2.13861386138614
4.73555204531837
6.58783150877569
201.080512727564
246.477839063281
247.227144633631
176.515435804899
1.74409937888199
6.42410196987254
5.27262227355515
1.00000000000000
1.00000000000000
1.00000000000000
1.00000000000000
1.00000000000000
1.42480211081794
6.18375898725244
8.64494560344679
248.245834474800
249
249
249
248.498152219200
246.970089907982
246.718950391072
72.9260439283951
53.3351361558971
1.93103448275862
3.81822093368711
1.26315789473684
3.58074866310160
3.96255297878766
209.845164513001
248.247858747450
138.091021541948
1.79305019305019
1.50000000000000
1.00000000000000
1.00000000000000
1.00000000000000
2.86291625473222
1.40800000000000
8.46225402504472
65.6584337586486
249
248.498993963783
249
5.88784956028325
1.76814734561213
1.00000000000000
1.00000000000000
1.00000000000000
1.00000000000000
1.00000000000000
1.00000000000000
1.00000000000000
1.00000000000000
1.00000000000000
1.00000000000000
1.00000000000000
1.67852760736196
6.12237281242150
6.39218812275807
199.392838713733
244.426761031219
249
228.184605803123
21.0804865095934
1.82406471183013
1.54539662312838
1.35849056603774
1.00000000000000
1.00000000000000
1.00000000000000
1.00000000000000
1.26315789473684
1.35849056603774
8.61840959330286
249
247.992580309409
249
249
249
246.453082537641
238.289248335980
16.8102623988165
1.45887961859356
1.43835616438356
1.38662033014770
1.81689113628628
4.34716981132075
1.48486886348352
246.970089907982
230.527075564936
1.87561498124341
1.00000000000000
4.88269794721408
1.49361702127660
1.00000000000000
1.00000000000000
1.31979695431472
4.84768328188322
1.49731343283582
117.668539607033
247.738384279783
247.998151881151
246.193118508908
13.0741799039338
1.76402500192916
1.00000000000000
1.00000000000000
1.00000000000000
1.00000000000000
1.00000000000000
1.00000000000000
1.00000000000000
1.00000000000000
1.00000000000000
1.00000000000000
1.26315789473684
1.31979695431472
3.66162648140580
1.64755658980326
234.291183355155
248.749538942161
248.245834474800
241.858798818431
124.890942325204
39.6042757652648
120.415056418387
1.40800000000000
1.35849056603774
1.00000000000000
1.00000000000000
1.76814734561213
1.47964060409100
13.1128399901985
144.749807141083
247.992580309409
246.745785701928
246.970089907982
245.166168243361
246.242447324329
249
244.688234261161
1.52579940417080
1.35849056603774
1.00000000000000
1.00000000000000
1.45887961859356
1.00000000000000
8.66163154935611
231.001882480964
72.8380593484513
1.77481243022924
2.99817451983001
1.62711864406780
1.00000000000000
1.00000000000000
1.00000000000000
1.62093094006693
1.74669187145558
1.94276258884585
136.679463653249
247.227144633631
247.483240898528
175.843643689086
1.95051472766620
3.80327868852459
1.00000000000000
1.00000000000000
1.00000000000000
1.00000000000000
1.00000000000000
1.00000000000000
1.00000000000000
1.00000000000000
1.00000000000000
1.00000000000000
1.17209302325581
1.41863699582754
2.50746268656716
1.68144282222369
247.239422266556
247.738384279783
131.778727470124
249
246.712071098900
248.245834474800
244.363496824173
2.57345773569141
1.00000000000000
1.00000000000000
1.00000000000000
1.84539065729640
6.20862417639768
46.6061848320826
247.227144633631
247.738384279783
245.469736085116
237.457942989019
245.181933201441
248.498152219200
246.998130628175
95.9132105578803
1.51533742331288
1.00000000000000
1.00000000000000
1.00000000000000
1.00000000000000
1.67441860465116
4.93593160858635
237.322382378340
245.701579689899
8.62044201348209
4.07614781634938
1.73608903020668
1.00000000000000
1.00000000000000
1.00000000000000
1.00000000000000
8.37622459423892
7.16181770238200
174.961707628643
246.453082537641
247.738384279783
204.751179498024
7.42702187528365
1.66666666666667
1.00000000000000
1.00000000000000
1.00000000000000
1.00000000000000
1.00000000000000
1.00000000000000
1.00000000000000
1.00000000000000
1.00000000000000
1.00000000000000
2.33726812816189
1.17209302325581
1.50898203592814
1.68431469569520
177.313091335405
249
248.245834474800
249
249
247.992580309409
246.453082537641
1.60000000000000
1.00000000000000
1.00000000000000
1.17209302325581
1.26315789473684
4.70869677162900
214.180842858109
245.969854973902
248.749538942160
121.219225605448
53.9149275752914
170.347198133964
244.686131698706
161.444446925290
5.67876181734400
4.89539748953975
1.59683168316832
1.00000000000000
1.00000000000000
1.35849056603774
5.13345521023766
95.6583480147824
248.498152219200
207.154594990198
9.56941494497007
1.45887961859356
1.31979695431472
1.00000000000000
1.00000000000000
1.17209302325581
1.50000000000000
4.49836464067414
202.613589331290
243.123630461279
248.498152219200
240.843225281645
17.4957705769790
4.48376207659178
1.38662033014770
1.38662033014770
1.00000000000000
2.78873239436620
1.00000000000000
1.00000000000000
1.00000000000000
1.43835616438356
1.51124437781109
1.26315789473684
4.80223847626528
1.81299885974914
1.55092316855271
6.66157769954738
1.80916304477850
80.2016949765848
246.745785701928
247.745818345964
249
249
248.245834474800
247.745818345964
1.00000000000000
1.00000000000000
1.40800000000000
7.41721854304636
3.54274353876740
26.4665891616414
225.536840813338
248.498152219200
243.612473021003
16.0061552746185
5.13733905579399
17.3398223462546
84.6703267134329
8.57797507733715
5.84195573638245
1.46683608640407
1.00000000000000
1.00000000000000
1.50898203592814
1.46683608640407
1.87020109689214
220.970384850266
247.992580309409
243.877492369566
68.8257990914840
3.36045160219160
1.73234115626789
1.17209302325581
1.00000000000000
1.62093094006693
3.21702127659574
7.85477009976110
240.166149733874
247.233283575920
247.992580309409
55.6010530184800
2.53848120685247
1.67852760736196
1.17209302325581
1.17209302325581
1.76814734561213
8.37622459423892
9.99866487874060
22.3962686204684
7.33585080147966
2.84106413116035
1.38662033014770
6.91878487290762
1.65872259294566
1.00000000000000
1.94011976047904
1.00000000000000
3.98128455976180
22.4110972527809
245.195680456011
245.000000000000
248.245834474800
249
249
248.245834474800
1.00000000000000
1.00000000000000
1.40800000000000
1.00000000000000
24.1143495332048
222.285541117260
246.203462617290
249
244.345567123074
1.97222222222222
1.00000000000000
1.85519386529519
1.26315789473684
2.26495232591736
1.92455450127285
1.92455450127285
1.17209302325581
1.00000000000000
1.00000000000000
1.17209302325581
1.98984771573604
248.498993963783
249
243.538535837612
119.155019853837
4.52694610778443
1.00000000000000
1.00000000000000
1.17209302325581
1.94011976047904
4.44444444444445
10.7320307259096
249
245.174926894712
247.227144633631
11.8473850211727
2.50000000000000
2.17573221757322
2.14054054054054
1.75852076721402
1.84539065729640
6.78195403728113
38.0137910518861
227.797705113875
64.7344808147151
7.18269006454289
2.04524673053977
1.76402500192916
1.00000000000000
1.00000000000000
1.00000000000000
1.00000000000000
1.35849056603774
97.8527985415321
232.757152862911
247.483240898528
248.498152219200
249
246.462366713901
245.983043461396
1.00000000000000
1.00000000000000
1.00000000000000
1.50000000000000
164.740824804572
247.488342800032
249
247.992580309409
152.412308183531
1.81146422304543
1.00000000000000
1.00000000000000
1.31979695431472
1.00000000000000
1.00000000000000
1.00000000000000
1.00000000000000
1.00000000000000
1.00000000000000
1.00000000000000
3.95979899497487
249
249
249
162.691541361353
3.17450495049505
1.44952178533475
1.00000000000000
1.42480211081794
1.00000000000000
2.02451333813987
57.5295697841275
248.749538942160
248.498152219200
34.5842041685575
1.33333333333333
1.00000000000000
1.00000000000000
1.17209302325581
1.00000000000000
41.0752323759078
132.516672175071
241.896178327797
241.893391447776
247.483240898528
226.640445760974
1.96023674212587
3.80327868852459
1.00000000000000
1.00000000000000
1.00000000000000
1.00000000000000
1.52190622598002
4.21708113874258
16.2717730817153
245.738201463048
248.498152219200
246.203462617290
189.231190877540
146.644229365949
1.00000000000000
1.00000000000000
1.00000000000000
1.50000000000000
174.254362319992
247.488342800032
249
244.749538257772
152.756867100793
5.63935813161308
1.00000000000000
1.00000000000000
1.00000000000000
1.00000000000000
1.00000000000000
1.00000000000000
1.00000000000000
1.00000000000000
1.00000000000000
1.00000000000000
3.96387235382932
249
249
242.523819357213
147.686469082432
1.00000000000000
1.00000000000000
1.00000000000000
1.00000000000000
1.00000000000000
1.26315789473684
6.88852112656323
249
246.970089907982
26.1685341870569
1.17209302325581
1.00000000000000
1.00000000000000
6.36074757006385
16.1064830804590
240.570165421533
247.738384279783
247.492551522190
247
245.932173250349
200.988385660935
1.85030838473079
1.17209302325581
1.00000000000000
1.00000000000000
1.00000000000000
1.00000000000000
1.00000000000000
2.88000000000000
17.0330020327752
249
244.982909170739
249
245.965363210688
169.465701227498
1.00000000000000
1.00000000000000
1.00000000000000
1.00000000000000
177.039075991775
247.227144633631
244.345567123074
249
12.4775565615377
2.70450751252087
1.50000000000000
1.00000000000000
1.00000000000000
1.00000000000000
1.00000000000000
1.00000000000000
1.00000000000000
1.00000000000000
1.00000000000000
1.80406182143313
12.9200480043097
207.521382384653
248.749538942161
248.498152219200
156.320965341170
36.7309523283841
1.43835616438356
1.81889242600939
6.10132108376743
1.00000000000000
2.12359550561798
10.6349958149751
248.749538942160
245.452712493219
31.5735966273393
4.03082502266546
1.85117967332123
1.00000000000000
1.35849056603774
19.5777398778007
246.712071098900
246.982401077527
248.498152219200
248.749538942160
246.466883130970
13.5893326773043
1.35849056603774
1.63383760419883
1.41863699582754
1.38662033014770
1.00000000000000
1.40800000000000
4.54621149042465
3.85391377145249
14.8308931493792
249
248.249538857818
246.469972911019
243.237964489710
112.127940928749
1.17209302325581
1.42480211081794
1.00000000000000
1.26315789473684
175.909639749002
247.738384279783
249
246.712071098900
29.5111840397994
1.79305019305019
1.50000000000000
1.48486886348352
1.00000000000000
1.00000000000000
1.00000000000000
1.00000000000000
1.00000000000000
1.00000000000000
1.00000000000000
1.38662033014770
1.73843228396366
65.7882670918337
247.239422266556
249
245.952898258939
187.222983731070
76.8177766652490
11.2456290310047
2.50000000000000
1.26315789473684
1.35849056603774
19.5930930116211
249
242.893401663960
1.97553390388333
1.70546623794212
1.63179916317992
1.00000000000000
1.17209302325581
11.5613715975190
248.749538942160
246.193118508908
247.245802088859
244.738107828484
201.529174770334
6.46092668142552
1.41863699582754
1.66666666666667
1.50000000000000
1.00000000000000
1.00000000000000
1.53600000000000
1.17209302325581
1.35849056603774
7.54270792957049
247.992580309409
249
249
246.712071098900
248.245834474800
1.66666666666667
1.40800000000000
1.00000000000000
1.00000000000000
144.469168523808
248.749538942161
248.245834474800
205.581828061321
21.9468092475141
2.61087866108787
1.26315789473684
1.00000000000000
1.00000000000000
1.00000000000000
1.00000000000000
1.00000000000000
1.00000000000000
1.00000000000000
1.38662033014770
1.00000000000000
1.31979695431472
13.7700775505711
89.1651550257354
244.878462995380
247.992580309409
242.536829128536
243.738012660604
22.5115778539030
1.31979695431472
1.38662033014770
5.98118418723637
50.3224262192295
249
243.893984207479
1.97368421052632
1.26315789473684
1.83394405219412
1.00000000000000
2.22439024390244
10.7607117278880
246.453082537641
246.712071098900
247.498137882307
249
127.619542205862
1.38662033014770
1.80972064804320
1.31979695431472
1.26315789473684
1.00000000000000
1.00000000000000
1.00000000000000
1.00000000000000
1.00000000000000
15.3608876200363
249
249
249
249
247.992580309409
1.00000000000000
2.69600169240533
1.00000000000000
1.41863699582754
14.0070270045139
216.026566446155
217.078202784835
76.9576865706592
3.00000000000000
3.96850393700787
1.48486886348352
1.00000000000000
1.00000000000000
1.00000000000000
1.00000000000000
1.00000000000000
1.00000000000000
1.00000000000000
1.00000000000000
1.00000000000000
5.23907875185736
2.04524673053977
104.420431435945
245.226783430767
249
246.970089907982
248.247523067176
34.4397718457764
2.70450751252087
1.57303370786517
5.23002421307506
6.69435215946844
9.75852201728116
8.57797507733715
5.84195573638245
1.66666666666667
1.40800000000000
1.00000000000000
1.00000000000000
1.99022000017929
248.749538942160
249
249
248.498152219200
13.1699271347924
1.38662033014770
3.37027379400261
1.51715962302175
1.00000000000000
1.00000000000000
1.00000000000000
1.00000000000000
1.00000000000000
1.42480211081794
12.7718994507813
229.222600036308
249
247.992580309409
247.483240898528
246.238247717006
1.17209302325581
1.00000000000000
1.17209302325581
1.70236439499305
1.98673751238746
231.900266397689
248.245834474800
244.093556686641
11.3914324481542
1.45887961859356
1.47964060409100
1.72406417112299
1.70932252460915
1.35849056603774
1.00000000000000
1.00000000000000
1.00000000000000
1.00000000000000
1.00000000000000
1.00000000000000
1.66037735849057
1.44952178533475
89.9912163192732
158.186876374641
249
248.247523067176
247.498137882307
33.5513139885453
1.17209302325581
1.35849056603774
1.42480211081794
6.51681473488152
6.40725334396094
2.26495232591736
1.92455450127285
1.42480211081794
2.69600169240533
1.00000000000000
1.41863699582754
110.455944688484
249
247.492551522190
244.726691297176
113.086487240273
1.46683608640407
1.97245051510591
1.41863699582754
1.63383760419883
1.00000000000000
1.00000000000000
1.00000000000000
1.00000000000000
1.00000000000000
1.38662033014770
5.23705091909566
123.247187678266
249
249
249
249
1.00000000000000
1.00000000000000
1.00000000000000
1.50000000000000
13.2309495896835
225.437027726621
246.498123315993
246.462366713901
199.815098639424
4.34989764086567
9.05944581677586
5.98528209321341
2.21560452650387
1.00000000000000
1.00000000000000
1.00000000000000
1.00000000000000
1.00000000000000
1.00000000000000
1.38662033014770
1.00000000000000
4.12566371681416
5.32088362559781
14.4371568970126
249
245.670240952053
247.992580309409
32.4124864588385
2.11046758016669
1.00000000000000
1.48949485918641
1.26315789473684
1.71754636233951
1.00000000000000
1.00000000000000
1.17209302325581
1.00000000000000
1.17209302325581
1.70236439499305
249
246.474645030426
247.483240898528
238.771932324095
5.61445338123371
2.13183850898412
1.74609869253480
1.68000000000000
1.00000000000000
1.00000000000000
1.00000000000000
1.00000000000000
1.00000000000000
1.63229486616937
3.23883688178278
5.07908108179571
2.17246726620111
210.922530828532
248.245834474800
249
246.745785701928
1.00000000000000
1.00000000000000
1.40800000000000
1.92196957674956
2.05438424543569
213.940613457082
245.745752532248
244.688234261161
246.469972911019
233.566568056350
97.0875419240552
1.00000000000000
1.60000000000000
1.00000000000000
1.00000000000000
1.00000000000000
1.00000000000000
1.00000000000000
1.00000000000000
1.35849056603774
1.26315789473684
3.41864504921830
1.67101980924431
9.74632288464016
249
249
249
2.95928251189722
1.95815899581590
1.00000000000000
1.00000000000000
1.33333333333333
1.95815899581590
2.69600169240533
1.00000000000000
1.00000000000000
4.77107183021425
5.36716012674055
11.5724531800082
245.692894633383
246.970089907982
244.421490030974
227.072036089662
19.2642971240918
1.17209302325581
1.00000000000000
1.00000000000000
1.00000000000000
1.00000000000000
1.00000000000000
1.00000000000000
1.00000000000000
1.00000000000000
2
8.53375796178344
2.13166243582979
155.874428442066
249
249
247.483240898528
1.00000000000000
1.00000000000000
3.29956584659913
1.00000000000000
3.74581939799331
150.823001569519
247.483240898528
249
249
244.747809347416
230.808182537975
3.46306627373038
1.75034729112919
1.00000000000000
1.00000000000000
1.00000000000000
1.00000000000000
1.00000000000000
1.00000000000000
1.31979695431472
4.22093516033338
2.21560452650387
10.6277429915041
110.455944688484
249
249
248.498993963783
3.93388429752066
1.33333333333333
1.00000000000000
1.00000000000000
1.00000000000000
1.38662033014770
1.53600000000000
1.17209302325581
2.89348171701113
12.3012122988454
129.624356773497
95.2808243430254
246.970089907982
249
246.498123315993
130.861677752319
14.1435760239506
2.90276453765491
1.00000000000000
1.00000000000000
1.00000000000000
1.00000000000000
1.00000000000000
1.00000000000000
1.00000000000000
1.17209302325581
1.48949485918641
4.90107889257090
4.41107353699776
190.453580497154
249
247.992580309409
246.712071098900
1.00000000000000
1.00000000000000
1.00000000000000
2.67216494845361
1.78348623853211
17.1528151012232
249
248.749538942160
247.992580309409
248.498152219200
222.367370976524
18.0276923076923
1.79305019305019
1.43835616438356
1.51124437781109
1.00000000000000
1.00000000000000
1.00000000000000
1.00000000000000
1.31979695431472
1.73195876288660
1.70981415063580
15.3349426674713
219.179366144320
249
247.992580309409
248.247858747450
7.69913156763341
1.33333333333333
1.00000000000000
1.00000000000000
1.00000000000000
1.00000000000000
1.17209302325581
1.76814734561213
8.37622459423892
37.2160547873916
247.488342800032
244.686131698706
248.498152219200
245.190690317017
237.952298293397
38.8900056366195
1.62711864406780
1.73195876288660
1.00000000000000
1.00000000000000
1.00000000000000
1.00000000000000
1.00000000000000
1.00000000000000
1.00000000000000
1.53600000000000
1.00000000000000
2.27747923790914
22.0289073705977
222.520817198782
249
248.749538942161
243.749520507404
1.00000000000000
1.00000000000000
1.17209302325581
1.00000000000000
2.99405940594059
1.64755658980326
249
249
247.992580309409
249
246.970089907982
218.861947181128
51.4549063939233
2.05387035666957
3.48243075651095
1.43835616438356
1.00000000000000
1.40800000000000
1.00000000000000
1.00000000000000
1.33333333333333
1.86422481844016
79.4666326040174
249
246.193118508908
249
246.453082537641
7.15637602490503
1.00000000000000
1.00000000000000
1.00000000000000
1.00000000000000
1.00000000000000
1.35849056603774
1.50000000000000
4.49836464067414
202.613589331290
246.483109800477
247.245802088859
242.186805662883
247.490057102045
200.341308060070
2.08957918197030
10.6376638855781
1.00000000000000
1.00000000000000
1.00000000000000
1.00000000000000
1.00000000000000
1.00000000000000
1.00000000000000
1.17209302325581
1.17209302325581
1.76814734561213
5.35414076561949
48.7319980501688
247.492551522190
248.749538942160
241.490257624165
175.715260015223
1.00000000000000
1.00000000000000
1.00000000000000
3.06976744186047
2.88000000000000
5.70793509668815
249
249
249
249
247.244474494451
245.420874867641
209.729775739243
8.44519450298275
1.43835616438356
1.47368421052632
1.00000000000000
1.00000000000000
1.00000000000000
1.00000000000000
1.50000000000000
6.80149134985882
200.793520420639
243.636700097838
249
249
245.407315756033
1.00000000000000
1.00000000000000
1.00000000000000
1.00000000000000
1.00000000000000
1.00000000000000
1.00000000000000
3.21702127659574
7.85477009976110
240.166149733874
246.203462617290
248.245834474800
245.670240952053
157.224196353182
34.1127793386282
2.24860508369498
1.31979695431472
2.27747923790914
1.00000000000000
1.00000000000000
1.00000000000000
1.00000000000000
1.00000000000000
1.86805040770941
2.91468226969656
1.38662033014770
1.71234428086070
1.50366819915876
62.8338107196376
247.227144633631
247.483240898528
243.353400620627
90.5464084419758
/
